…
Checking how the line chart of the average temperature.

ggplot(avg_temp, aes(x = doy, y = doytavg))+
  geom_line()

<img src="{{< blogdown/postref >}}index_files/figure-html/unnamed-chunk-5-1.png" width="672" />
This chart looks fine but, we need a a smoother average line on which we can then plot the temperature changes from 2010 to 2021. To accomplish this, we wil use the rollmean() function from the “zoo” package.

avg_temp$rollavg20 <- rollmean(avg_temp$doytavg, 20, fill = c(NA, NA, NA), align = "center")

(avg_temp)

## # A tibble: 366 x 3
##      doy doytavg rollavg20
##    <dbl>   <dbl>     <dbl>
##  1     1    55.6      NA  
##  2     2    56.6      NA  
##  3     3    55.9      NA  
##  4     4    56.1      NA  
##  5     5    56.1      NA  
##  6     6    56.9      NA  
##  7     7    56.8      NA  
##  8     8    57.4      NA  
##  9     9    57.4      NA  
## 10    10    58.0      56.9
## # ... with 356 more rows

With rollmean, we provide a window of 10 data point, and the use align as “center”. The “center” parameter in align calculates the mean for a data point by taking the ten data points before and ten data points after the point for which it is calculating the mean. And with “fill” command we instruct the code to fill with “NA” for the points it is unable to find a window. These are the first and last ten rows in “avg_temp”.

The issue here is that rollmean() does not know to connect the first day of the year to the last day to calculate the rolling mean. Therefore, we create a new column where we subtract that last 20 days of december from 366. The we arrange the whole data frame in ascending order by this column. ow we calculate the rolling average again in the new column and replace the NAs in from the old rolling average column with the new averages.

avg_temp <- avg_temp %>% 
  mutate(doy2=ifelse(doy>345, doy-366, doy))  %>% 
  arrange(doy2) %>% 
  mutate(rollavg_2=rollmean(doytavg, 20, fill = c(NA, NA, NA)))  %>% 
  mutate(rollavg20=ifelse(is.na(rollavg20), rollavg_2, rollavg20)) %>%  
select(-c("doy2", "rollavg_2")) 

(avg_temp)

## # A tibble: 366 x 3
##      doy doytavg rollavg20
##    <dbl>   <dbl>     <dbl>
##  1   346    61.5      61.6
##  2   347    61.6      61.4
##  3   348    61.7      61.2
##  4   349    61.1      61.0
##  5   350    60.6      60.8
##  6   351    61.1      60.5
##  7   352    60.4      60.3
##  8   353    60.1      60.1
##  9   354    60.0      59.8
## 10   355    60.1      59.5
## # ... with 356 more rows
…
